' ',Misiones,Provincia,54
' ',San Luis,Provincia,74
' ',San Juan,Provincia,70
' ',Entre Ríos,Provincia,30
' ',Santa Cruz,Provincia,78
' ',Río Negro,Provincia,62
' ',Chubut,Provincia,26
' ',Córdoba,Provincia,14
' ',Mendoza,Provincia,50
' ',La Rioja,Provincia,46
' ',Catamarca,Provincia,10
' ',La Pampa,Provincia,42
' ',Santiago del Estero,Provincia,86
' ',Corrientes,Provincia,18
' ',Santa Fe,Provincia,82
' ',Tucumán,Provincia,90
' ',Neuquén,Provincia,58
' ',Salta,Provincia,66
' ',Chaco,Provincia,22
' ',Formosa,Provincia,34
' ',Jujuy,Provincia,38
' ',Ciudad Autónoma de Buenos Aires,Ciudad Autónoma,2
' ',Buenos Aires,Provincia,6
' ',Tierra del Fuego,Provincia,94
